<!-- Shape: mail -->
<svg xmlns:xlink="http://www.w3.org/1999/xlink" fill="none" width="40" xmlns="http://www.w3.org/2000/svg" style="-webkit-print-color-adjust:exact" id="screenshot-6a171975-f4af-80bf-8002-5b326160c508" version="1.1" viewBox="3120.5 233.5 40 32" height="32">
	<g id="shape-6a171975-f4af-80bf-8002-5b326160c508" rx="0" ry="0">
		<g id="shape-6a171975-f4af-80bf-8002-5b326160c509">
			<g class="fills" id="fills-6a171975-f4af-80bf-8002-5b326160c509">
				<ellipse rx="11.839810094838867" ry="11.93980442020522" cx="3132.839810094839" cy="245.93980442020518" transform="matrix(1.000000, 0.000000, 0.000000, 1.000000, 0.000000, 0.000000)">
				</ellipse>
			</g>
			<g id="strokes-6a171975-f4af-80bf-8002-5b326160c509" class="strokes">
				<g class="stroke-shape">
					<ellipse rx="11.839810094838867" ry="11.93980442020522" style="fill:none;fill-opacity:none;stroke-width:1;stroke:#3f3f3f;stroke-opacity:1;stroke-dasharray:" cx="3132.839810094839" cy="245.93980442020518" transform="matrix(1.000000, 0.000000, 0.000000, 1.000000, 0.000000, 0.000000)">
					</ellipse>
				</g>
			</g>
		</g>
		<g id="shape-6a171975-f4af-80bf-8002-5b326160c50a">
			<g class="fills" id="fills-6a171975-f4af-80bf-8002-5b326160c50a">
				<ellipse rx="8.75116398314185" ry="8.825072832325588" cx="3132.839810094839" cy="245.9398044202052" transform="matrix(1.000000, 0.000000, 0.000000, 1.000000, 0.000000, 0.000000)">
				</ellipse>
			</g>
			<g id="strokes-6a171975-f4af-80bf-8002-5b326160c50a" class="strokes">
				<g class="stroke-shape">
					<ellipse rx="8.75116398314185" ry="8.825072832325588" style="fill:none;fill-opacity:none;stroke-width:0.5;stroke:#3f3f3f;stroke-opacity:1;stroke-dasharray:" cx="3132.839810094839" cy="245.9398044202052" transform="matrix(1.000000, 0.000000, 0.000000, 1.000000, 0.000000, 0.000000)">
					</ellipse>
				</g>
			</g>
		</g>
		<g id="shape-6a171975-f4af-80bf-8002-5b326160c50b">
			<g class="fills" id="fills-6a171975-f4af-80bf-8002-5b326160c50b">
				<path rx="0" ry="0" d="M3141.591,254.997L3152.428,261.922C3152.428,261.922,3164.367,267.093,3155.183,257.537C3155.183,257.537,3155.183,257.537,3155.183,257.537L3144.346,250.612">
				</path>
			</g>
			<g id="strokes-6a171975-f4af-80bf-8002-5b326160c50b" class="strokes">
				<g class="stroke-shape">
					<path rx="0" ry="0" style="fill:none;fill-opacity:none;stroke-width:1;stroke:#3f3f3f;stroke-opacity:1;stroke-dasharray:" d="M3141.591,254.997L3152.428,261.922C3152.428,261.922,3164.367,267.093,3155.183,257.537C3155.183,257.537,3155.183,257.537,3155.183,257.537L3144.346,250.612">
					</path>
				</g>
			</g>
		</g>
	</g>
</svg>